################################################################
Module for HPSS connectivity for both archiving and retrieving
based on Berkeley Storage Manager (BeStMan)

module load python (use latested python)
!module load python (use latested python)
!module load python (use latested python)

# ========
# install:
# ========
do "make" to compile the C libraries
the read the following for python commands


#=======================
# sample python commands
#=======================
#
# Note that the tar files and the original "data_path" are NOT removed after uploading to nersc.
#
# usage: python v3.archiveIliad.py data_path tar_path nersc_path
#

# before you run,  please:
# () set the python env
#     so outputFileCollection.py is accessible

python v3.archiveIliad.py /scratch3/scratchdirs/taobrien/cascade/iliad/ne16np4/iliad-ne16np4-2005_01_01_00-2005_05_01_00/ /scratch1/scratchdirs/junmin/cascade/ /home/j/junmin/test/ 

###########################################################





